^D:\PROGRAMS\STORAGE\MP2-LAB1-SET\SRC\KISELEV_IVAN\SAMPLES\SAMPLE_PRIME_NUMBERS.CPP
D:\PROGRAMS\STORAGE\MP2-LAB1-SET\SRC\KISELEV_IVAN\SLN\VC10\SAMPLE_PRIME_NUMBERS\DEBUG\VC140.PDB
D:\PROGRAMS\STORAGE\MP2-LAB1-SET\SRC\KISELEV_IVAN\SLN\VC10\SAMPLE_PRIME_NUMBERS\DEBUG\VC140.IDB
D:\PROGRAMS\STORAGE\MP2-LAB1-SET\SRC\KISELEV_IVAN\SLN\VC10\SAMPLE_PRIME_NUMBERS\DEBUG\SAMPLE_PRIME_NUMBERS.OBJ
